module gitlab.com/go-yp/go-three-redis

go 1.14

require (
	github.com/go-redis/redis v6.15.9+incompatible
	github.com/onsi/ginkgo v1.14.1 // indirect
	github.com/onsi/gomega v1.10.2 // indirect
	github.com/stretchr/testify v1.6.1
)
